clang -std=c99 -Wall -g -D DEBUG_MODE  src/main.c lib/tgc/tgc.c  -o bin/dist
2017-10-10 20:55:01 | DEBUG   | main.c          | parse_string:294 | push new expression onto the stack

2017-10-10 20:55:01 | DEBUG   | main.c          | parse_string:300 | Add expression to top node of the stack

2017-10-10 20:55:01 | DEBUG   | main.c          | parse_string:317 | Add value node to top node of the stack

2017-10-10 20:55:01 | DEBUG   | main.c          | print_node:195 | (type: 1) (n addr: 23884000) (s addr: 0) (c addr:23884288) (is t: 0)

2017-10-10 20:55:01 | DEBUG   | main.c          | print_node:193 | (value: 9)
2017-10-10 20:55:01 | DEBUG   | main.c          | print_node:195 | (type: 2) (n addr: 23884288) (s addr: 0) (c addr:0) (is t: 0)

2017-10-10 20:55:01 | DEBUG   | main.c          | parse_string:294 | push new expression onto the stack

2017-10-10 20:55:01 | DEBUG   | main.c          | parse_string:300 | Add expression to top node of the stack

2017-10-10 20:55:01 | DEBUG   | main.c          | parse_string:317 | Add value node to top node of the stack

2017-10-10 20:55:01 | DEBUG   | main.c          | print_node:195 | (type: 1) (n addr: 23884336) (s addr: 0) (c addr:23886672) (is t: 0)

2017-10-10 20:55:01 | DEBUG   | main.c          | print_node:193 | (value: 3)
2017-10-10 20:55:01 | DEBUG   | main.c          | print_node:195 | (type: 2) (n addr: 23886672) (s addr: 0) (c addr:0) (is t: 0)

2017-10-10 20:55:01 | DEBUG   | main.c          | parse_string:317 | Add value node to top node of the stack

2017-10-10 20:55:01 | DEBUG   | main.c          | print_node:193 | (value: 3)
2017-10-10 20:55:01 | DEBUG   | main.c          | print_node:195 | (type: 2) (n addr: 23886672) (s addr: 23886720) (c addr:0) (is t: 0)

2017-10-10 20:55:01 | DEBUG   | main.c          | print_node:193 | (value: 3)
2017-10-10 20:55:01 | DEBUG   | main.c          | print_node:195 | (type: 2) (n addr: 23886720) (s addr: 0) (c addr:0) (is t: 0)

2017-10-10 20:55:01 | DEBUG   | main.c          | parse_string:292 | collpase the stack

2017-10-10 20:55:01 | DEBUG   | main.c          | parse_string:292 | collpase the stack

2017-10-10 20:55:01 | DEBUG   | main.c          | parse_string:348 | RETURNING EXPRESSION

2017-10-10 20:55:01 | DEBUG   | main.c          | bfs:222 |  ( = 
2017-10-10 20:55:01 | DEBUG   | main.c          | bfs:227 |  9 
2017-10-10 20:55:01 | DEBUG   | main.c          | bfs:222 |  ( * 
2017-10-10 20:55:01 | DEBUG   | main.c          | bfs:227 |  3 
2017-10-10 20:55:01 | DEBUG   | main.c          | bfs:227 |  3 
2017-10-10 20:55:01 | DEBUG   | main.c          | bfs:224 |  ) 
2017-10-10 20:55:01 | DEBUG   | main.c          | bfs:224 |  ) 
2017-10-10 20:55:01 | DEBUG   | main.c          | eval_expression_node:201 | (type: 1) (n addr: 23884000) (s addr: 0) (c addr:23884288) (is t: 0)

2017-10-10 20:55:01 | DEBUG   | main.c          | eval_expression_node:201 | (type: 1) (n addr: 23884336) (s addr: 0) (c addr:23886672) (is t: 0)

2017-10-10 20:55:01 | DEBUG   | main.c          | multiply_expression:54 | returning : 3 * 3 = 9

Got parameter =
Got parameter *
Sent: (= 9 (* 3 3))
Got: SAW: 3 3
eval: 1